ℹ️⬇️
```
-------------------------------
 🔎 = Inline Bot
 🔹 = Officialized by Telegram
 🚮 =  spams a lot
 💤 = currently unavailable
-------------------------------```

🇬🇧 Inline bots work from any chat by writing the bots name followed by a command or search term. E.g: @gif cats

🇪🇸 Los bots en línea funcionan desde cualquier chat, escribiendo el nombre del bot, seguido del término de búsqueda o comando. Ej: @gif gatos

```
-------------------------------
 🔎 = Bot en línea
 🔹 = Oficializado por Telegram
 🚮 = El bot hace mucho spam
 💤 = El Bot está actualmente desconectado
-------------------------------
```
ℹ️⬆️

NEW →
↓
{}
